{
  "current_page": 1,
  "data": [
    {
      "breed": "Abyssinian",
      "country": "Ethiopia",
      "origin": "Natural/Standard",
      "coat": "Short",
      "pattern": "Ticked"
    },
    {
      "breed": "Aegean",
      "country": "Greece",
      "origin": "Natural/Standard",
      "coat": "Semi-long",
      "pattern": "Bi- or tri-colored"
    },
    {
      "breed": "American Curl",
      "country": "United States",
      "origin": "Mutation",
      "coat": "Short/Long",
      "pattern": "All"
    },
    {
      "breed": "American Bobtail",
      "country": "United States",
      "origin": "Mutation",
      "coat": "Short/Long",
      "pattern": "All"
    },
    {
      "breed": "American Shorthair",
      "country": "United States",
      "origin": "Natural",
      "coat": "Short",
      "pattern": "All but colorpoint"
    }
  ],
  "first_page_url": "https://catfact.ninja/breeds?page=1",
  "from": 1,
  "last_page": 20,
  "last_page_url": "https://catfact.ninja/breeds?page=20",
  "links": [
    {
      "url": null,
      "label": "Previous",
      "active": false
    },
    {
      "url": "https://catfact.ninja/breeds?page=1",
      "label": "1",
      "active": true
    },
    {
      "url": "https://catfact.ninja/breeds?page=2",
      "label": "2",
      "active": false
    },
    {
      "url": "https://catfact.ninja/breeds?page=3",
      "label": "3",
      "active": false
    },
    {
      "url": "https://catfact.ninja/breeds?page=4",
      "label": "4",
      "active": false
    },
    {
      "url": "https://catfact.ninja/breeds?page=5",
      "label": "5",
      "active": false
    },
    {
      "url": "https://catfact.ninja/breeds?page=6",
      "label": "6",
      "active": false
    },
    {
      "url": "https://catfact.ninja/breeds?page=7",
      "label": "7",
      "active": false
    },
    {
      "url": "https://catfact.ninja/breeds?page=8",
      "label": "8",
      "active": false
    },
    {
      "url": "https://catfact.ninja/breeds?page=9",
      "label": "9",
      "active": false
    },
    {
      "url": "https://catfact.ninja/breeds?page=10",
      "label": "10",
      "active": false
    },
    {
      "url": null,
      "label": "...",
      "active": false
    },
    {
      "url": "https://catfact.ninja/breeds?page=19",
      "label": "19",
      "active": false
    },
    {
      "url": "https://catfact.ninja/breeds?page=20",
      "label": "20",
      "active": false
    },
    {
      "url": "https://catfact.ninja/breeds?page=2",
      "label": "Next",
      "active": false
    }
  ],
  "next_page_url": "https://catfact.ninja/breeds?page=2",
  "path": "https://catfact.ninja/breeds",
  "per_page": "5",
  "prev_page_url": null,
  "to": 5,
  "total": 98
}